[
	["测试点编号", "$n \\le$", "$t_1$", "$t_2$", "$t_3$"],
	["1", "10", "3", "1", "2"],
	["2", "100", null, "2", null],
	["3", "2000", null, null, null],
	["4", "4000", "1", "3", null],
	["5", "6000", "3", null, "1"],
	["6", "8000", "2", null, "2"],
	["7", "9000", "3", "4", null],
	["8", "10000", null, "3", null],
	["9", "30000", null, "4", null],
	["10", "50000", null, null, "1"],
	["11", "60000", null, "3", "2"],
	["12", "65000", "2", "4", null],
	["13", "70000", "3", null, null],
	["14", "200000", null, null, null],
	["15", "300000", "2", null, null],
	["16", "400000", "3", null, null],
	["17", "500000", null, "3", null],
	["18", "600000", null, "4", null],
	["19", "700000", null, null, null],
	["20", "800000", "1", null, null],
	["21", "900000", "2", null, null],
	["22", "930000", "3", "3", null],
	["23", "960000", null, "4", "1"],
	["24", "990000", null, "3", "2"],
	["25", "1000000", null, "4", null]
]
