100 3 1 2
2 30
2 1
2 4
2 0
1 793691523 8
1 139633802 20
2 18
2 29
1 -932872741 16
2 15
2 28
1 853349098 19
2 10
1 -799694077 5
2 16
1 -233646443 3
1 549402475 28
2 12
1 500902691 9
2 3
2 25
1 788488011 1
2 12
1 418484423 14
2 23
2 5
2 7
1 551246419 21
2 17
2 12
1 994999076 8
1 -986548695 18
2 16
1 -4778055 18
1 966928948 30
2 2
2 9
2 19
1 -753329185 25
1 788072990 5
1 -334881706 4
1 202600737 2
2 13
2 5
2 22
2 19
2 12
1 828805192 22
2 18
2 30
2 9
1 -799550324 27
1 -94892723 6
2 12
2 11
1 -106347438 20
1 -447648414 28
2 29
2 11
2 9
2 3
1 663267126 27
2 13
1 62051710 16
1 590347766 9
2 3
1 327537112 23
1 279037204 5
1 -915163372 17
2 21
1 758425753 13
1 100269707 14
1 39687820 10
1 -460836695 17
2 14
2 6
1 169044452 0
1 -515369410 4
2 17
1 79639731 25
2 18
2 30
2 8
1 -60020860 15
2 29
2 6
1 -306074470 14
1 -939871406 11
1 363833459 4
2 29
2 22
2 19
2 9
2 1
1 483471933 30
1 111740277 30
1 194929627 2
2 17
2 1
2 6
