[
	["申请更换教室的时间段","申请通过的时间段","出现的概率","耗费的体力值","耗费的体力值的期望"],
	["无","无",1.00,"8",8.00],
	["1","1",0.80,"4",4.80],
	[null,"无",0.20,"8",null],
	["2","2",0.20,"0",6.40],
	[null,"无",0.80,"8",null],
	["3","3",0.50,"4",6.00],
	[null,"无",0.50,"8",null],
	["1、2","1、2",0.16,"4",4.48],
	[null,"1",0.64,"4",null],
	[null,"2",0.04,"0",null],
	[null,"无",0.16,"8",null],
	["1、3","1、3",0.40,"0",2.80],
	[null,"1",0.40,"4",null],
	[null,"3",0.10,"4",null],
	[null,"无",0.10,"8",null],
	["2、3","2、3",0.10,"4",5.20],
	[null,"2",0.10,"0",null],
	[null,"3",0.40,"4",null],
	[null,"无",0.40,"8",null]
]