{
	"cnname" : "蚯蚓",
	"type" : "program",
	"time limit" : 1.0,
	"memory limit" : "512 MB",
	"test cases" : 20,
	"compile" : {
		"cpp" : "-lm",
		"c" : "-lm",
		"pas" : ""
	},
	"sample count" : 3,
	"data" : [
		{"cases" : [1], "args" : [1, 0, 1, 1000000, 2, 1]},
		{"cases" : [2], "args" : [1000, 0, 1, 1000000, 2, 1]},
		{"cases" : [3], "args" : [100000, 0, 1, 1000000, 2, 1]},
		{"cases" : [4], "args" : [1, 1000, 1, 1000000, 2, 1]},
		{"cases" : [5], "args" : [1000, 1000, 1, 1000000, 2, 1]},
		{"cases" : [6], "args" : [1, 1000, 1, 1000000, 2, 0]},
		{"cases" : [7], "args" : [1000, 1000, 1, 1000000, 2, 0]},
		{"cases" : [8], "args" : [50000, 50000, 1, 1000000, 2, 1]},
		{"cases" : [9], "args" : [100000, 100000, 2, 1000000, 2, 1]},
		{"cases" : [10], "args" : [100000, 2000000, 21, 1000000, 2, 1]},
		{"cases" : [11], "args" : [100000, 2500000, 26, 1000000, 2, 1]},
		{"cases" : [12], "args" : [100000, 3500000, 36, 10000000, 2, 1]},
		{"cases" : [13], "args" : [100000, 5000000, 51, 10000000, 1000000000, 1]},
		{"cases" : [14], "args" : [100000, 7000000, 71, 100000000, 1000000000, 1]},
		{"cases" : [15], "args" : [50000, 50000, 1, 100000000, 2, 0]},
		{"cases" : [16], "args" : [50000, 150000, 2, 100000000, 2, 0]},
		{"cases" : [17], "args" : [100000, 100000, 3, 100000000, 1000000000, 0]},
		{"cases" : [18], "args" : [100000, 300000, 4, 100000000, 1000000000, 0]},
		{"cases" : [19], "args" : [100000, 3500000, 36, 100000000, 1000000000, 0]},
		{"cases" : [20], "args" : [100000, 7000000, 71, 100000000, 1000000000, 0]}
	]
}
